Homework 02
…
There are 13,372 rows in the resulting dataset.

Question 2

drop_na(gold_medalists)

# A tibble: 10,167 × 15
      id name     sex     age height weight team  noc   games  year season city 
   <dbl> <chr>    <chr> <dbl>  <dbl>  <dbl> <chr> <chr> <chr> <dbl> <chr>  <chr>
 1    17 Paavo J… M        28    175     64 Finl… FIN   1948…  1948 Summer Lond…
 2    17 Paavo J… M        28    175     64 Finl… FIN   1948…  1948 Summer Lond…
 3    17 Paavo J… M        28    175     64 Finl… FIN   1948…  1948 Summer Lond…
 4    20 Kjetil … M        20    176     85 Norw… NOR   1992…  1992 Winter Albe…
 5    20 Kjetil … M        30    176     85 Norw… NOR   2002…  2002 Winter Salt…
 6    20 Kjetil … M        30    176     85 Norw… NOR   2002…  2002 Winter Salt…
 7    20 Kjetil … M        34    176     85 Norw… NOR   2006…  2006 Winter Tori…
 8    72 Aleksey… M        28    180     83 Bela… BLR   2008…  2008 Summer Beij…
 9    73 Luc Aba… M        23    182     86 Fran… FRA   2008…  2008 Summer Beij…
10    73 Luc Aba… M        27    182     86 Fran… FRA   2012…  2012 Summer Lond…
# ℹ 10,157 more rows
# ℹ 3 more variables: sport <chr>, event <chr>, medal <chr>
…
