Homework_MD_05
…
Question 5

twitch_data <- twitch_data %>% 
  mutate(language = as.factor(language), 
         language = relevel(language, ref = "English"))

fit2 <- lm(average_viewers ~ language, data = twitch_data)

get_regression_table(fit2)

# A tibble: 21 × 7
   term                estimate std_error statistic p_value lower_ci upper_ci
   <chr>                  <dbl>     <dbl>     <dbl>   <dbl>    <dbl>    <dbl>
 1 intercept              5113.      385.    13.3     0        4358.    5868.
 2 language: Arabic        569.     3808.     0.15    0.881   -6903.    8042.
 3 language: Chinese     -1688.     1594.    -1.06    0.29    -4815.    1439.
 4 language: Czech       -3285.     3480.    -0.944   0.345  -10113.    3543.
 5 language: Finnish     -4086.     8480.    -0.482   0.63   -20726.   12555.
 6 language: French      -1606.     1111.    -1.44    0.149   -3787.     575.
 7 language: German       -835.     1270.    -0.657   0.511   -3326.    1657.
 8 language: Greek       -3152.     8480.    -0.372   0.71   -19792.   13489.
 9 language: Hungarian   -2972.     6002.    -0.495   0.621  -14751.    8806.
10 language: Italian     -2907.     2090.    -1.39    0.165   -7009.    1194.
# ℹ 11 more rows
…
For the first part of the graph, the observed values are higher than the predicted values (so I underpredicted). This pattern is also similar at the end of the graph too. In the middle of the graph, my prediction did well and the predicted line is close to the observed values.

largest_out <-get_regression_points(fit2) %>% 
  arrange(desc(residual))
largest_out

# A tibble: 1,000 × 5
      ID average_viewers language average_viewers_hat residual
   <int>           <dbl> <fct>                  <dbl>    <dbl>
 1    82          147643 English                5113.  142530.
 2   110          126232 Russian                6594.  119638.
 3    15           53986 Spanish                6450.   47536.
 4    42           46459 English                5113.   41346.
 5     6           42414 English                5113.   37301.
 6    14           42948 Spanish                6450.   36498.
 7    22           39848 Korean                 3914.   35934.
 8    53           36086 English                5113.   30973.
 9    47           36030 English                5113.   30917.
10   991           35333 English                5113.   30220.
# ℹ 990 more rows
…
