Homework 04
…
library(tidyverse)

Question 1

salaries <- read_csv("https://raw.githubusercontent.com/vaiseys/dav-course/main/Data/nfl_salaries.csv")

Question 2

salaries_longer <- salaries %>% 
  pivot_longer(names_to = "position", 
               values_to = "salary", 
               cols = -year)
salaries_longer

# A tibble: 8,000 × 3
    year position            salary
   <dbl> <chr>                <dbl>
 1  2011 Cornerback        11265916
 2  2011 Defensive Lineman 17818000
 3  2011 Linebacker        16420000
 4  2011 Offensive Lineman 15960000
 5  2011 Quarterback       17228125
 6  2011 Running Back      12955000
 7  2011 Safety             8871428
 8  2011 Special Teamer     4300000
 9  2011 Tight End          8734375
10  2011 Wide Receiver     16250000
# ℹ 7,990 more rows
…
I noticed that more quarterbacks are receiving salaries over 1 million USD in 2018 than in 2011. I also noticed that the salaries of quarterbacks are generally around 1 million to 5 million USD over the years. However as the years go from 2011 to 2018, more football players are passing a 10 million USD salary.

Question 4

average_salary <- salaries_longer %>% 
  group_by(position,year) %>% 
  summarize(mean = mean(salary, na.rm = TRUE))

`summarise()` has grouped output by 'position'. You can override using the
`.groups` argument.

average_salary

# A tibble: 80 × 3
# Groups:   position [10]
   position           year     mean
   <chr>             <dbl>    <dbl>
 1 Cornerback         2011 3037766.
 2 Cornerback         2012 3132916.
 3 Cornerback         2013 2901798.
 4 Cornerback         2014 3038278.
 5 Cornerback         2015 3758543.
 6 Cornerback         2016 4201470.
 7 Cornerback         2017 4125692.
 8 Cornerback         2018 4659704.
 9 Defensive Lineman  2011 4306995.
10 Defensive Lineman  2012 4693730.
# ℹ 70 more rows
…
