Homework_05_DV
…
Question 1

wncaa_wins <- wncaa %>% 
  filter(tourney_finish == "Champ")
wncaa_wins

# A tibble: 37 × 19
    year school      seed conference conf_w conf_l conf_percent conf_place reg_w
   <dbl> <chr>      <dbl> <chr>       <dbl>  <dbl>        <dbl> <chr>      <dbl>
 1  1982 Louisiana…     1 Independe…     NA     NA         NA   -             30
 2  1983 Southern …     1 Western C…     NA     NA         NA   -             25
 3  1984 Southern …     1 Western C…     13      1         92.9 T1st          24
 4  1985 Old Domin…     1 Sun Belt        6      0        100   1st           26
 5  1986 Texas          1 Southwest      16      0        100   1st           29
 6  1987 Tennessee      2 Southeast…      6      3         66.7 T4th          23
 7  1988 Louisiana…     2 American …      9      0        100   1st           27
 8  1989 Tennessee      1 Southeast…      8      1         88.9 2nd           30
 9  1990 Stanford       1 Pacific-10     17      1         94.4 T1st          27
10  1991 Tennessee      1 Southeast…      6      3         66.7 3rd           25
# ℹ 27 more rows
# ℹ 10 more variables: reg_l <dbl>, reg_percent <dbl>, how_qual <chr>,
#   x1st_game_at_home <chr>, tourney_w <dbl>, tourney_l <dbl>,
#   tourney_finish <chr>, full_w <dbl>, full_l <dbl>, full_percent <dbl>
…
